A new website
…
df |>
    na.omit() |>
    group_by(state_name) |>
    summarise(count = n()) |>
    arrange(desc(count)) 

# A tibble: 50 × 2
   state_name     count
   <chr>          <int>
 1 Florida           25
 2 Georgia           25
 3 Kentucky          25
 4 Massachusetts     25
 5 Michigan          25
 6 Minnesota         25
 7 Missouri          25
 8 New-Jersey        25
 9 Pennsylvania      25
10 South-Carolina    25
# ℹ 40 more rows
…
df <- fread("https://raw.githubusercontent.com/rfordatascience/tidytuesday/master/data/2020/2020-03-10/diversity_school.csv")
View(df)

df |>
    na.omit() |>
    select(name, total_enrollment, state) |>
    distinct() |>
    group_by(state) |>
    summarize(state_total = sum(total_enrollment)) |>
    distinct() |>
    arrange(desc(state_total))

# A tibble: 50 × 2
   state        state_total
   <chr>              <int>
 1 California       2701574
 2 Texas            1554851
 3 New York         1306337
 4 Florida          1106535
 5 Illinois          815588
 6 Pennsylvania      711641
 7 Ohio              678880
 8 Arizona           674746
 9 Michigan          610769
10 Virginia          582918
# ℹ 40 more rows
…
